3_genV_w_2_folder/sim/out/vcs_sim.log
Info: [VCS_SAVE_RESTORE_INFO] ASLR (Address Space Layout Randomization) is detected on the machine. To enable $save functionality, ASLR will be switched off and simv re-executed.
Please use '-no_save' simv switch to avoid re-execution or '-suppress=ASLR_DETECTED_INFO' to suppress this message.
Chronologic VCS simulator copyright 1991-2023
Contains Synopsys proprietary information.
Compiler version V-2023.12-1_Full64; Runtime version V-2023.12-1_Full64;  May  9 14:54 2026
	Warning CORE_TB.DUT.ICACHE.ICACHE_SRAM.SRAM : input CEB unknown/high-Z at simulation time 5.0

[TB] partial result saved: sent_cnt=0 used_u32=0 file=lstm_result_summary.txt
[TESTBENCH] Wall-clock start (epoch sec): 1778306081
[TB] partial result saved: sent_cnt=0 used_u32=0 file=lstm_result_summary.txt
[TB] IMEM[0..7] = 01200137 00010113 00018193 00dab537 88850513 00deb5b7 0b458593 00000313
[TB][func] time=8593745000 pc=0x000014f4 main
[TB][func] time=8594185000 pc=0x0000138c reset_result_buffer
[TB][func] time=8597305000 pc=0x00000b98 init_static_buffers
[TB][func] time=8598845000 pc=0x00001754 arena_reset
[TB][func] time=8600185000 pc=0x00001778 arena_alloc
[TB][func] time=8626645000 pc=0x00000e68 greedy_decode_int
[TB][func] time=8893095000 pc=0x00000ee8 publish_partial_result_sequence
[TB][func] time=8894445000 pc=0x000006a4 embedding_lookup
[TB][func] cycle=900103 (0.001B) time=9001055000 pc=0x0000074c lstm_step_int count=1
[TB][func] cycle=900514 time=9005165000 pc=0x00000038 gemv_hw count=1
[ACCEL] 9007785000: START rows=512 cols=128 mat=8b9a5c vec=dab8b0 out=dabeb0
[ACCEL] 9016705000: LOAD_VEC done -> LOAD_ROW row=0
[ACCEL] 9025905000: STORE row=0 done
[ACCEL] 10202225000: STORE row=128 done
[ACCEL] 11378545000: STORE row=256 done
[ACCEL] 12554865000: STORE row=384 done
[ACCEL] 13721995000: DONE! (all 512 rows)
[ACCEL] 13724235000: START rows=512 cols=128 mat=939a5c vec=dab0b0 out=daa8b0
[ACCEL] 13733155000: LOAD_VEC done -> LOAD_ROW row=0
[ACCEL] 13742355000: STORE row=0 done
[ACCEL] 14918675000: STORE row=128 done
[ACCEL] 16094995000: STORE row=256 done
[ACCEL] 17271315000: STORE row=384 done
[ACCEL] 18438445000: DONE! (all 512 rows)
[TB][func] cycle=3934901 (0.004B) time=39349035000 pc=0x0000074c lstm_step_int count=2
[TB][func] cycle=3935312 time=39353145000 pc=0x00000038 gemv_hw count=2
[ACCEL] 39355765000: START rows=512 cols=128 mat=8f9a5c vec=dab8b0 out=dabeb0
[ACCEL] 39364685000: LOAD_VEC done -> LOAD_ROW row=0
[ACCEL] 39373885000: STORE row=0 done
[ACCEL] 40550205000: STORE row=128 done
[ACCEL] 41726525000: STORE row=256 done
[ACCEL] 42902845000: STORE row=384 done
[ACCEL] 44069975000: DONE! (all 512 rows)
[ACCEL] 44072215000: START rows=512 cols=128 mat=979a5c vec=dab2b0 out=daa8b0
[ACCEL] 44081135000: LOAD_VEC done -> LOAD_ROW row=0
[ACCEL] 44090335000: STORE row=0 done
[ACCEL] 45266655000: STORE row=128 done
[ACCEL] 46442975000: STORE row=256 done
[ACCEL] 47619295000: STORE row=384 done
[ACCEL] 48786425000: DONE! (all 512 rows)
[TB][func] cycle=6984408 (0.007B) time=69844105000 pc=0x0000074c lstm_step_int count=3
[TB][func] cycle=6984819 time=69848215000 pc=0x00000038 gemv_hw count=3
[ACCEL] 69850835000: START rows=512 cols=128 mat=8b9a5c vec=dab8b0 out=dabeb0
[ACCEL] 69859755000: LOAD_VEC done -> LOAD_ROW row=0
[ACCEL] 69868955000: STORE row=0 done
[ACCEL] 71045275000: STORE row=128 done
[ACCEL] 72221595000: STORE row=256 done
[ACCEL] 73397915000: STORE row=384 done
[ACCEL] 74565045000: DONE! (all 512 rows)
[ACCEL] 74567285000: START rows=512 cols=128 mat=939a5c vec=dab0b0 out=daa8b0
[ACCEL] 74576205000: LOAD_VEC done -> LOAD_ROW row=0
[ACCEL] 74585405000: STORE row=0 done
[ACCEL] 75761725000: STORE row=128 done
[ACCEL] 76938045000: STORE row=256 done
[ACCEL] 78114365000: STORE row=384 done
[ACCEL] 79281495000: DONE! (all 512 rows)
[TB][func] cycle=10016760 (0.010B) time=100167625000 pc=0x0000074c lstm_step_int count=4
[TB][func] cycle=10017171 time=100171735000 pc=0x00000038 gemv_hw count=4
[ACCEL] 100174355000: START rows=512 cols=128 mat=8f9a5c vec=dab8b0 out=dabeb0
[ACCEL] 100183275000: LOAD_VEC done -> LOAD_ROW row=0
[ACCEL] 100192475000: STORE row=0 done
[ACCEL] 101368795000: STORE row=128 done
[ACCEL] 102545115000: STORE row=256 done
[ACCEL] 103721435000: STORE row=384 done
[ACCEL] 104888565000: DONE! (all 512 rows)
[ACCEL] 104890805000: START rows=512 cols=128 mat=979a5c vec=dab2b0 out=daa8b0
[ACCEL] 104899725000: LOAD_VEC done -> LOAD_ROW row=0
[ACCEL] 104908925000: STORE row=0 done
[ACCEL] 106085245000: STORE row=128 done
[ACCEL] 107261565000: STORE row=256 done
[ACCEL] 108437885000: STORE row=384 done
[ACCEL] 109605015000: DONE! (all 512 rows)
[TB][func] cycle=13061279 (0.013B) time=130612815000 pc=0x0000074c lstm_step_int count=5
[TB][func] cycle=13061690 time=130616925000 pc=0x00000038 gemv_hw count=5
[ACCEL] 130619545000: START rows=512 cols=128 mat=8b9a5c vec=dab8b0 out=dabeb0
[ACCEL] 130628465000: LOAD_VEC done -> LOAD_ROW row=0
[ACCEL] 130637665000: STORE row=0 done
[ACCEL] 131813985000: STORE row=128 done
[ACCEL] 132990305000: STORE row=256 done
[ACCEL] 134166625000: STORE row=384 done
[ACCEL] 135333755000: DONE! (all 512 rows)
[ACCEL] 135335995000: START rows=512 cols=128 mat=939a5c vec=dab0b0 out=daa8b0
[ACCEL] 135344915000: LOAD_VEC done -> LOAD_ROW row=0
[ACCEL] 135354115000: STORE row=0 done
[ACCEL] 136530435000: STORE row=128 done
[ACCEL] 137706755000: STORE row=256 done
[ACCEL] 138883075000: STORE row=384 done
[ACCEL] 140050205000: DONE! (all 512 rows)
[TB][func] cycle=16094448 (0.016B) time=160944505000 pc=0x0000074c lstm_step_int count=6
[TB][func] cycle=16094859 time=160948615000 pc=0x00000038 gemv_hw count=6
[ACCEL] 160951235000: START rows=512 cols=128 mat=8f9a5c vec=dab8b0 out=dabeb0
[ACCEL] 160960155000: LOAD_VEC done -> LOAD_ROW row=0
[ACCEL] 160969355000: STORE row=0 done
[ACCEL] 162145675000: STORE row=128 done
[ACCEL] 163321995000: STORE row=256 done
[ACCEL] 164498315000: STORE row=384 done
[ACCEL] 165665445000: DONE! (all 512 rows)
[ACCEL] 165667685000: START rows=512 cols=128 mat=979a5c vec=dab2b0 out=daa8b0
[ACCEL] 165676605000: LOAD_VEC done -> LOAD_ROW row=0
[ACCEL] 165685805000: STORE row=0 done
[ACCEL] 166862125000: STORE row=128 done
[ACCEL] 168038445000: STORE row=256 done
[ACCEL] 169214765000: STORE row=384 done
[ACCEL] 170381895000: DONE! (all 512 rows)
[TB][func] cycle=19136172 (0.019B) time=191361745000 pc=0x0000074c lstm_step_int count=7
[TB][func] cycle=19136583 time=191365855000 pc=0x00000038 gemv_hw count=7
[ACCEL] 191368475000: START rows=512 cols=128 mat=8b9a5c vec=dab8b0 out=dabeb0
[ACCEL] 191377395000: LOAD_VEC done -> LOAD_ROW row=0
[ACCEL] 191386595000: STORE row=0 done
[ACCEL] 192562915000: STORE row=128 done
[ACCEL] 193739235000: STORE row=256 done
[ACCEL] 194915555000: STORE row=384 done
[ACCEL] 196082685000: DONE! (all 512 rows)
[ACCEL] 196084925000: START rows=512 cols=128 mat=939a5c vec=dab0b0 out=daa8b0
[ACCEL] 196093845000: LOAD_VEC done -> LOAD_ROW row=0
[ACCEL] 196103045000: STORE row=0 done
[ACCEL] 197279365000: STORE row=128 done
[ACCEL] 198455685000: STORE row=256 done
[ACCEL] 199632005000: STORE row=384 done
[ACCEL] 200799135000: DONE! (all 512 rows)
[TB][func] cycle=22171405 (0.022B) time=221714075000 pc=0x0000074c lstm_step_int count=8
[TB][func] cycle=22171816 time=221718185000 pc=0x00000038 gemv_hw count=8
[ACCEL] 221720805000: START rows=512 cols=128 mat=8f9a5c vec=dab8b0 out=dabeb0
[ACCEL] 221729725000: LOAD_VEC done -> LOAD_ROW row=0
[ACCEL] 221738925000: STORE row=0 done
[ACCEL] 222915245000: STORE row=128 done
[ACCEL] 224091565000: STORE row=256 done
[ACCEL] 225267885000: STORE row=384 done
[ACCEL] 226435015000: DONE! (all 512 rows)
[ACCEL] 226437255000: START rows=512 cols=128 mat=979a5c vec=dab2b0 out=daa8b0
[ACCEL] 226446175000: LOAD_VEC done -> LOAD_ROW row=0
[ACCEL] 226455375000: STORE row=0 done
[ACCEL] 227631695000: STORE row=128 done
[ACCEL] 228808015000: STORE row=256 done
[ACCEL] 229984335000: STORE row=384 done
[ACCEL] 231151465000: DONE! (all 512 rows)
[TB][func] cycle=25217945 (0.025B) time=252179475000 pc=0x0000074c lstm_step_int count=9
[TB][func] cycle=25218356 time=252183585000 pc=0x00000038 gemv_hw count=9
[ACCEL] 252186205000: START rows=512 cols=128 mat=8b9a5c vec=dab8b0 out=dabeb0
[ACCEL] 252195125000: LOAD_VEC done -> LOAD_ROW row=0
[ACCEL] 252204325000: STORE row=0 done
[ACCEL] 253380645000: STORE row=128 done
[ACCEL] 254556965000: STORE row=256 done
[ACCEL] 255733285000: STORE row=384 done
[ACCEL] 256900415000: DONE! (all 512 rows)
[ACCEL] 256902655000: START rows=512 cols=128 mat=939a5c vec=dab0b0 out=daa8b0
[ACCEL] 256911575000: LOAD_VEC done -> LOAD_ROW row=0
[ACCEL] 256920775000: STORE row=0 done
[ACCEL] 258097095000: STORE row=128 done
[ACCEL] 259273415000: STORE row=256 done
[ACCEL] 260449735000: STORE row=384 done
[ACCEL] 261616865000: DONE! (all 512 rows)
[TB][func] cycle=28254941 (0.028B) time=282549435000 pc=0x0000074c lstm_step_int count=10
[TB][func] cycle=28255352 time=282553545000 pc=0x00000038 gemv_hw count=10
[ACCEL] 282556165000: START rows=512 cols=128 mat=8f9a5c vec=dab8b0 out=dabeb0
[ACCEL] 282565085000: LOAD_VEC done -> LOAD_ROW row=0
[ACCEL] 282574285000: STORE row=0 done
[ACCEL] 283750605000: STORE row=128 done
[ACCEL] 284926925000: STORE row=256 done
[ACCEL] 286103245000: STORE row=384 done
[ACCEL] 287270375000: DONE! (all 512 rows)
[ACCEL] 287272615000: START rows=512 cols=128 mat=979a5c vec=dab2b0 out=daa8b0
[ACCEL] 287281535000: LOAD_VEC done -> LOAD_ROW row=0
[ACCEL] 287290735000: STORE row=0 done
[ACCEL] 288467055000: STORE row=128 done
[ACCEL] 289643375000: STORE row=256 done
[ACCEL] 290819695000: STORE row=384 done
[ACCEL] 291986825000: DONE! (all 512 rows)
[TB][func] cycle=31300750 (0.031B) time=313007525000 pc=0x0000074c lstm_step_int count=11
[TB][func] cycle=31301161 time=313011635000 pc=0x00000038 gemv_hw count=11
[ACCEL] 313014255000: START rows=512 cols=128 mat=8b9a5c vec=dab8b0 out=dabeb0
[ACCEL] 313023175000: LOAD_VEC done -> LOAD_ROW row=0
[ACCEL] 313032375000: STORE row=0 done
[ACCEL] 314208695000: STORE row=128 done
[ACCEL] 315385015000: STORE row=256 done
[ACCEL] 316561335000: STORE row=384 done
[ACCEL] 317728465000: DONE! (all 512 rows)
[ACCEL] 317730705000: START rows=512 cols=128 mat=939a5c vec=dab0b0 out=daa8b0
[ACCEL] 317739625000: LOAD_VEC done -> LOAD_ROW row=0
[ACCEL] 317748825000: STORE row=0 done
[ACCEL] 318925145000: STORE row=128 done
[ACCEL] 320101465000: STORE row=256 done
[ACCEL] 321277785000: STORE row=384 done
[ACCEL] 322444915000: DONE! (all 512 rows)
[TB][func] cycle=34334650 (0.034B) time=343346525000 pc=0x0000074c lstm_step_int count=12
[TB][func] cycle=34335061 time=343350635000 pc=0x00000038 gemv_hw count=12
[ACCEL] 343353255000: START rows=512 cols=128 mat=8f9a5c vec=dab8b0 out=dabeb0
[ACCEL] 343362175000: LOAD_VEC done -> LOAD_ROW row=0
[ACCEL] 343371375000: STORE row=0 done
[ACCEL] 344547695000: STORE row=128 done
[ACCEL] 345724015000: STORE row=256 done
[ACCEL] 346900335000: STORE row=384 done
[ACCEL] 348067465000: DONE! (all 512 rows)
[ACCEL] 348069705000: START rows=512 cols=128 mat=979a5c vec=dab2b0 out=daa8b0
[ACCEL] 348078625000: LOAD_VEC done -> LOAD_ROW row=0
[ACCEL] 348087825000: STORE row=0 done
[ACCEL] 349264145000: STORE row=128 done
[ACCEL] 350440465000: STORE row=256 done
[ACCEL] 351616785000: STORE row=384 done
[ACCEL] 352783915000: DONE! (all 512 rows)
[TB][func] cycle=37381362 (0.037B) time=373813645000 pc=0x0000074c lstm_step_int count=13
[TB][func] cycle=37381773 time=373817755000 pc=0x00000038 gemv_hw count=13
[ACCEL] 373820375000: START rows=512 cols=128 mat=8b9a5c vec=dab8b0 out=dabeb0
[ACCEL] 373829295000: LOAD_VEC done -> LOAD_ROW row=0
[ACCEL] 373838495000: STORE row=0 done
[ACCEL] 375014815000: STORE row=128 done
[ACCEL] 376191135000: STORE row=256 done
[ACCEL] 377367455000: STORE row=384 done
[ACCEL] 378534585000: DONE! (all 512 rows)
[ACCEL] 378536825000: START rows=512 cols=128 mat=939a5c vec=dab0b0 out=daa8b0
[ACCEL] 378545745000: LOAD_VEC done -> LOAD_ROW row=0
[ACCEL] 378554945000: STORE row=0 done
[ACCEL] 379731265000: STORE row=128 done
[ACCEL] 380907585000: STORE row=256 done
[ACCEL] 382083905000: STORE row=384 done
[ACCEL] 383251035000: DONE! (all 512 rows)
[TB][func] cycle=40415434 (0.040B) time=404154365000 pc=0x0000074c lstm_step_int count=14
[TB][func] cycle=40415845 time=404158475000 pc=0x00000038 gemv_hw count=14
[ACCEL] 404161095000: START rows=512 cols=128 mat=8f9a5c vec=dab8b0 out=dabeb0
[ACCEL] 404170015000: LOAD_VEC done -> LOAD_ROW row=0
[ACCEL] 404179215000: STORE row=0 done
[ACCEL] 405355535000: STORE row=128 done
[ACCEL] 406531855000: STORE row=256 done
[ACCEL] 407708175000: STORE row=384 done
[ACCEL] 408875305000: DONE! (all 512 rows)
[ACCEL] 408877545000: START rows=512 cols=128 mat=979a5c vec=dab2b0 out=daa8b0
[ACCEL] 408886465000: LOAD_VEC done -> LOAD_ROW row=0
[ACCEL] 408895665000: STORE row=0 done
[ACCEL] 410071985000: STORE row=128 done
[ACCEL] 411248305000: STORE row=256 done
[ACCEL] 412424625000: STORE row=384 done
[ACCEL] 413591755000: DONE! (all 512 rows)
[TB][func] cycle=43464382 (0.043B) time=434643845000 pc=0x0000074c lstm_step_int count=15
[TB][func] cycle=43464793 time=434647955000 pc=0x00000038 gemv_hw count=15
[ACCEL] 434650575000: START rows=512 cols=128 mat=8b9a5c vec=dab8b0 out=dabeb0
[ACCEL] 434659495000: LOAD_VEC done -> LOAD_ROW row=0
[ACCEL] 434668695000: STORE row=0 done
[ACCEL] 435845015000: STORE row=128 done
[ACCEL] 437021335000: STORE row=256 done
[ACCEL] 438197655000: STORE row=384 done
[ACCEL] 439364785000: DONE! (all 512 rows)
[ACCEL] 439367025000: START rows=512 cols=128 mat=939a5c vec=dab0b0 out=daa8b0
[ACCEL] 439375945000: LOAD_VEC done -> LOAD_ROW row=0
[ACCEL] 439385145000: STORE row=0 done
[ACCEL] 440561465000: STORE row=128 done
[ACCEL] 441737785000: STORE row=256 done
[ACCEL] 442914105000: STORE row=384 done
[ACCEL] 444081235000: DONE! (all 512 rows)
[TB][func] cycle=46501034 (0.047B) time=465010365000 pc=0x0000074c lstm_step_int count=16
[TB][func] cycle=46501445 time=465014475000 pc=0x00000038 gemv_hw count=16
[ACCEL] 465017095000: START rows=512 cols=128 mat=8f9a5c vec=dab8b0 out=dabeb0
[ACCEL] 465026015000: LOAD_VEC done -> LOAD_ROW row=0
[ACCEL] 465035215000: STORE row=0 done
[ACCEL] 466211535000: STORE row=128 done
[ACCEL] 467387855000: STORE row=256 done
[ACCEL] 468564175000: STORE row=384 done
[ACCEL] 469731305000: DONE! (all 512 rows)
[ACCEL] 469733545000: START rows=512 cols=128 mat=979a5c vec=dab2b0 out=daa8b0
[ACCEL] 469742465000: LOAD_VEC done -> LOAD_ROW row=0
[ACCEL] 469751665000: STORE row=0 done
[ACCEL] 470927985000: STORE row=128 done
[ACCEL] 472104305000: STORE row=256 done
[ACCEL] 473280625000: STORE row=384 done
[ACCEL] 474447755000: DONE! (all 512 rows)
[TB][func] cycle=49549337 (0.050B) time=495493395000 pc=0x0000074c lstm_step_int count=17
[TB][func] cycle=49549748 time=495497505000 pc=0x00000038 gemv_hw count=17
[ACCEL] 495500125000: START rows=512 cols=128 mat=8b9a5c vec=dab8b0 out=dabeb0
[ACCEL] 495509045000: LOAD_VEC done -> LOAD_ROW row=0
[ACCEL] 495518245000: STORE row=0 done
[ACCEL] 496694565000: STORE row=128 done
[ACCEL] 497870885000: STORE row=256 done
[ACCEL] 499047205000: STORE row=384 done
[ACCEL] 500214335000: DONE! (all 512 rows)
[ACCEL] 500216575000: START rows=512 cols=128 mat=939a5c vec=dab0b0 out=daa8b0
[ACCEL] 500225495000: LOAD_VEC done -> LOAD_ROW row=0
[ACCEL] 500234695000: STORE row=0 done
[ACCEL] 501411015000: STORE row=128 done
[ACCEL] 502587335000: STORE row=256 done
[ACCEL] 503763655000: STORE row=384 done
[ACCEL] 504930785000: DONE! (all 512 rows)
[TB][func] cycle=52585312 (0.053B) time=525853145000 pc=0x0000074c lstm_step_int count=18
[TB][func] cycle=52585723 time=525857255000 pc=0x00000038 gemv_hw count=18
[ACCEL] 525859875000: START rows=512 cols=128 mat=8f9a5c vec=dab8b0 out=dabeb0
[ACCEL] 525868795000: LOAD_VEC done -> LOAD_ROW row=0
[ACCEL] 525877995000: STORE row=0 done
[ACCEL] 527054315000: STORE row=128 done
[ACCEL] 528230635000: STORE row=256 done
[ACCEL] 529406955000: STORE row=384 done
[ACCEL] 530574085000: DONE! (all 512 rows)
[ACCEL] 530576325000: START rows=512 cols=128 mat=979a5c vec=dab2b0 out=daa8b0
[ACCEL] 530585245000: LOAD_VEC done -> LOAD_ROW row=0
[ACCEL] 530594445000: STORE row=0 done
[ACCEL] 531770765000: STORE row=128 done
[ACCEL] 532947085000: STORE row=256 done
[ACCEL] 534123405000: STORE row=384 done
[ACCEL] 535290535000: DONE! (all 512 rows)
[TB][func] cycle=55633744 (0.056B) time=556337465000 pc=0x0000074c lstm_step_int count=19
[TB][func] cycle=55634155 time=556341575000 pc=0x00000038 gemv_hw count=19
[ACCEL] 556344195000: START rows=512 cols=128 mat=8b9a5c vec=dab8b0 out=dabeb0
[ACCEL] 556353115000: LOAD_VEC done -> LOAD_ROW row=0
[ACCEL] 556362315000: STORE row=0 done
[ACCEL] 557538635000: STORE row=128 done
[ACCEL] 558714955000: STORE row=256 done
[ACCEL] 559891275000: STORE row=384 done
[ACCEL] 561058405000: DONE! (all 512 rows)
[ACCEL] 561060645000: START rows=512 cols=128 mat=939a5c vec=dab0b0 out=daa8b0
[ACCEL] 561069565000: LOAD_VEC done -> LOAD_ROW row=0
[ACCEL] 561078765000: STORE row=0 done
[ACCEL] 562255085000: STORE row=128 done
[ACCEL] 563431405000: STORE row=256 done
[ACCEL] 564607725000: STORE row=384 done
[ACCEL] 565774855000: DONE! (all 512 rows)
[TB][func] cycle=58672417 (0.059B) time=586724195000 pc=0x0000074c lstm_step_int count=20
[TB][func] cycle=58672828 time=586728305000 pc=0x00000038 gemv_hw count=20
[ACCEL] 586730925000: START rows=512 cols=128 mat=8f9a5c vec=dab8b0 out=dabeb0
[ACCEL] 586739845000: LOAD_VEC done -> LOAD_ROW row=0
[ACCEL] 586749045000: STORE row=0 done
[ACCEL] 587925365000: STORE row=128 done
[ACCEL] 589101685000: STORE row=256 done
[ACCEL] 590278005000: STORE row=384 done
[ACCEL] 591445135000: DONE! (all 512 rows)
[ACCEL] 591447375000: START rows=512 cols=128 mat=979a5c vec=dab2b0 out=daa8b0
[ACCEL] 591456295000: LOAD_VEC done -> LOAD_ROW row=0
[ACCEL] 591465495000: STORE row=0 done
[ACCEL] 592641815000: STORE row=128 done
[ACCEL] 593818135000: STORE row=256 done
[ACCEL] 594994455000: STORE row=384 done
[ACCEL] 596161585000: DONE! (all 512 rows)
[TB][func] cycle=61719989 (0.062B) time=617199915000 pc=0x0000074c lstm_step_int count=21
[TB][func] cycle=61720400 time=617204025000 pc=0x00000038 gemv_hw count=21
[ACCEL] 617206645000: START rows=512 cols=128 mat=8b9a5c vec=dab8b0 out=dabeb0
[ACCEL] 617215565000: LOAD_VEC done -> LOAD_ROW row=0
[ACCEL] 617224765000: STORE row=0 done
[ACCEL] 618401085000: STORE row=128 done
[ACCEL] 619577405000: STORE row=256 done
[ACCEL] 620753725000: STORE row=384 done
[ACCEL] 621920855000: DONE! (all 512 rows)
[ACCEL] 621923095000: START rows=512 cols=128 mat=939a5c vec=dab0b0 out=daa8b0
[ACCEL] 621932015000: LOAD_VEC done -> LOAD_ROW row=0
[ACCEL] 621941215000: STORE row=0 done
[ACCEL] 623117535000: STORE row=128 done
[ACCEL] 624293855000: STORE row=256 done
[ACCEL] 625470175000: STORE row=384 done
[ACCEL] 626637305000: DONE! (all 512 rows)
[TB][func] cycle=64754878 (0.065B) time=647548805000 pc=0x0000074c lstm_step_int count=22
[TB][func] cycle=64755289 time=647552915000 pc=0x00000038 gemv_hw count=22
[ACCEL] 647555535000: START rows=512 cols=128 mat=8f9a5c vec=dab8b0 out=dabeb0
[ACCEL] 647564455000: LOAD_VEC done -> LOAD_ROW row=0
[ACCEL] 647573655000: STORE row=0 done
[ACCEL] 648749975000: STORE row=128 done
[ACCEL] 649926295000: STORE row=256 done
[ACCEL] 651102615000: STORE row=384 done
[ACCEL] 652269745000: DONE! (all 512 rows)
[ACCEL] 652271985000: START rows=512 cols=128 mat=979a5c vec=dab2b0 out=daa8b0
[ACCEL] 652280905000: LOAD_VEC done -> LOAD_ROW row=0
[ACCEL] 652290105000: STORE row=0 done
[ACCEL] 653466425000: STORE row=128 done
[ACCEL] 654642745000: STORE row=256 done
[ACCEL] 655819065000: STORE row=384 done
[ACCEL] 656986195000: DONE! (all 512 rows)
[TB] partial result saved: sent_cnt=1 used_u32=0 file=lstm_result_summary.txt
[TB] partial result saved: sent_cnt=1 used_u32=2 file=lstm_result_summary.txt
[TB][func] cycle=67805022 time=678050245000 pc=0x00000038 gemv_hw count=23
[ACCEL] 678052865000: START rows=512 cols=128 mat=9baa5c vec=dab8b0 out=dabeb0
[ACCEL] 678061785000: LOAD_VEC done -> LOAD_ROW row=0
[ACCEL] 678070985000: STORE row=0 done
[ACCEL] 679247305000: STORE row=128 done
[ACCEL] 680423625000: STORE row=256 done
[ACCEL] 681599945000: STORE row=384 done
[ACCEL] 682767075000: DONE! (all 512 rows)
[ACCEL] 682768965000: START rows=512 cols=128 mat=a3aa5c vec=dab0b0 out=daa8b0
[ACCEL] 682777885000: LOAD_VEC done -> LOAD_ROW row=0
[ACCEL] 682787085000: STORE row=0 done
[ACCEL] 683963405000: STORE row=128 done
[ACCEL] 685139725000: STORE row=256 done
[ACCEL] 686316045000: STORE row=384 done
[ACCEL] 687483175000: DONE! (all 512 rows)
[TB][func] cycle=70836921 time=708369235000 pc=0x00000038 gemv_hw count=24
[ACCEL] 708371855000: START rows=512 cols=128 mat=9faa5c vec=dab8b0 out=dabeb0
[ACCEL] 708380775000: LOAD_VEC done -> LOAD_ROW row=0
[ACCEL] 708389975000: STORE row=0 done
[ACCEL] 709566295000: STORE row=128 done
[ACCEL] 710742615000: STORE row=256 done
[ACCEL] 711918935000: STORE row=384 done
[ACCEL] 713086065000: DONE! (all 512 rows)
[ACCEL] 713087955000: START rows=512 cols=128 mat=a7aa5c vec=dab2b0 out=daa8b0
[ACCEL] 713096875000: LOAD_VEC done -> LOAD_ROW row=0
[ACCEL] 713106075000: STORE row=0 done
[ACCEL] 714282395000: STORE row=128 done
[ACCEL] 715458715000: STORE row=256 done
[ACCEL] 716635035000: STORE row=384 done
[ACCEL] 717802165000: DONE! (all 512 rows)
[TB][func] time=738740895000 pc=0x00000ac0 linear_out_argmax
[TB] partial result saved: sent_cnt=1 used_u32=3 file=lstm_result_summary.txt
[TB][func] cycle=397685315 time=3976853175000 pc=0x00000038 gemv_hw count=25
[ACCEL] 3976855795000: START rows=512 cols=128 mat=9baa5c vec=dab8b0 out=dabeb0
[ACCEL] 3976864715000: LOAD_VEC done -> LOAD_ROW row=0
[ACCEL] 3976873915000: STORE row=0 done
[ACCEL] 3978050235000: STORE row=128 done
[ACCEL] 3979226555000: STORE row=256 done
[ACCEL] 3980402875000: STORE row=384 done
[ACCEL] 3981570005000: DONE! (all 512 rows)
[ACCEL] 3981571895000: START rows=512 cols=128 mat=a3aa5c vec=dab0b0 out=daa8b0
[ACCEL] 3981580815000: LOAD_VEC done -> LOAD_ROW row=0
[ACCEL] 3981590015000: STORE row=0 done
[ACCEL] 3982766335000: STORE row=128 done
[ACCEL] 3983942655000: STORE row=256 done
[ACCEL] 3985118975000: STORE row=384 done
[ACCEL] 3986286105000: DONE! (all 512 rows)
[TB][func] cycle=400717749 time=4007177515000 pc=0x00000038 gemv_hw count=26
[ACCEL] 4007180135000: START rows=512 cols=128 mat=9faa5c vec=dab8b0 out=dabeb0
[ACCEL] 4007189055000: LOAD_VEC done -> LOAD_ROW row=0
[ACCEL] 4007198255000: STORE row=0 done
[ACCEL] 4008374575000: STORE row=128 done
[ACCEL] 4009550895000: STORE row=256 done
[ACCEL] 4010727215000: STORE row=384 done
[ACCEL] 4011894345000: DONE! (all 512 rows)
[ACCEL] 4011896235000: START rows=512 cols=128 mat=a7aa5c vec=dab2b0 out=daa8b0
[ACCEL] 4011905155000: LOAD_VEC done -> LOAD_ROW row=0
[ACCEL] 4011914355000: STORE row=0 done
[ACCEL] 4013090675000: STORE row=128 done
[ACCEL] 4014266995000: STORE row=256 done
[ACCEL] 4015443315000: STORE row=384 done
[ACCEL] 4016610445000: DONE! (all 512 rows)
[TB][func] time=4037504255000 pc=0x00000ac0 linear_out_argmax
[TB] partial result saved: sent_cnt=1 used_u32=4 file=lstm_result_summary.txt
[TB][func] cycle=727574300 time=7275743025000 pc=0x00000038 gemv_hw count=27
[ACCEL] 7275745645000: START rows=512 cols=128 mat=9baa5c vec=dab8b0 out=dabeb0
[ACCEL] 7275754565000: LOAD_VEC done -> LOAD_ROW row=0
[ACCEL] 7275763765000: STORE row=0 done
[ACCEL] 7276940085000: STORE row=128 done
[ACCEL] 7278116405000: STORE row=256 done
[ACCEL] 7279292725000: STORE row=384 done
[ACCEL] 7280459855000: DONE! (all 512 rows)
[ACCEL] 7280461745000: START rows=512 cols=128 mat=a3aa5c vec=dab0b0 out=daa8b0
[ACCEL] 7280470665000: LOAD_VEC done -> LOAD_ROW row=0
[ACCEL] 7280479865000: STORE row=0 done
[ACCEL] 7281656185000: STORE row=128 done
[ACCEL] 7282832505000: STORE row=256 done
[ACCEL] 7284008825000: STORE row=384 done
[ACCEL] 7285175955000: DONE! (all 512 rows)
[TB][func] cycle=730602735 time=7306027375000 pc=0x00000038 gemv_hw count=28
[ACCEL] 7306029995000: START rows=512 cols=128 mat=9faa5c vec=dab8b0 out=dabeb0
[ACCEL] 7306038915000: LOAD_VEC done -> LOAD_ROW row=0
[ACCEL] 7306048115000: STORE row=0 done
[ACCEL] 7307224435000: STORE row=128 done
[ACCEL] 7308400755000: STORE row=256 done
[ACCEL] 7309577075000: STORE row=384 done
[ACCEL] 7310744205000: DONE! (all 512 rows)
[ACCEL] 7310746095000: START rows=512 cols=128 mat=a7aa5c vec=dab2b0 out=daa8b0
[ACCEL] 7310755015000: LOAD_VEC done -> LOAD_ROW row=0
[ACCEL] 7310764215000: STORE row=0 done
[ACCEL] 7311940535000: STORE row=128 done
[ACCEL] 7313116855000: STORE row=256 done
[ACCEL] 7314293175000: STORE row=384 done
[ACCEL] 7315460305000: DONE! (all 512 rows)
[TB][func] time=7336335035000 pc=0x00000ac0 linear_out_argmax
[TB] partial result saved: sent_cnt=1 used_u32=5 file=lstm_result_summary.txt
[TB][func] cycle=1057439033 time=10574390355000 pc=0x00000038 gemv_hw count=29
[ACCEL] 10574392975000: START rows=512 cols=128 mat=9baa5c vec=dab8b0 out=dabeb0
[ACCEL] 10574401895000: LOAD_VEC done -> LOAD_ROW row=0
[ACCEL] 10574411095000: STORE row=0 done
[ACCEL] 10575587415000: STORE row=128 done
[ACCEL] 10576763735000: STORE row=256 done
[ACCEL] 10577940055000: STORE row=384 done
[ACCEL] 10579107185000: DONE! (all 512 rows)
[ACCEL] 10579109075000: START rows=512 cols=128 mat=a3aa5c vec=dab0b0 out=daa8b0
[ACCEL] 10579117995000: LOAD_VEC done -> LOAD_ROW row=0
[ACCEL] 10579127195000: STORE row=0 done
[ACCEL] 10580303515000: STORE row=128 done
[ACCEL] 10581479835000: STORE row=256 done
[ACCEL] 10582656155000: STORE row=384 done
[ACCEL] 10583823285000: DONE! (all 512 rows)
[TB][func] cycle=1060463279 time=10604632815000 pc=0x00000038 gemv_hw count=30
[ACCEL] 10604635435000: START rows=512 cols=128 mat=9faa5c vec=dab8b0 out=dabeb0
[ACCEL] 10604644355000: LOAD_VEC done -> LOAD_ROW row=0
[ACCEL] 10604653555000: STORE row=0 done
[ACCEL] 10605829875000: STORE row=128 done
