2_AS501_final_main/sim/out/vcs_sim.log
Info: [VCS_SAVE_RESTORE_INFO] ASLR (Address Space Layout Randomization) is detected on the machine. To enable $save functionality, ASLR will be switched off and simv re-executed.
Please use '-no_save' simv switch to avoid re-execution or '-suppress=ASLR_DETECTED_INFO' to suppress this message.
Chronologic VCS simulator copyright 1991-2023
Contains Synopsys proprietary information.
Compiler version V-2023.12-1_Full64; Runtime version V-2023.12-1_Full64;  May  7 12:10 2026
	Warning CORE_TB.DUT.ICACHE.ICACHE_SRAM.SRAM : input CEB unknown/high-Z at simulation time 5.0

[TB] partial result saved: sent_cnt=0 used_u32=0 file=lstm_result_summary.txt
[TESTBENCH] Wall-clock start (epoch sec): 1778123447
[TB] partial result saved: sent_cnt=0 used_u32=0 file=lstm_result_summary.txt
[TB] IMEM[0..7] = 01200137 00010113 00018193 00dab537 88850513 00deb5b7 0b458593 00000313
[TB][func] time=8593745000 pc=0x00001694 main
[TB][func] time=8594185000 pc=0x0000152c reset_result_buffer
[TB][func] time=8597305000 pc=0x00000d38 init_static_buffers
[TB][func] time=8598845000 pc=0x000018f4 arena_reset
[TB][func] time=8600185000 pc=0x00001918 arena_alloc
[TB][func] time=8626945000 pc=0x00001008 greedy_decode_int
[TB][func] time=8894745000 pc=0x00000844 embedding_lookup
[TB][func] cycle=900133 (0.001B) time=9001355000 pc=0x000008ec lstm_step_int count=1
[TB][func] cycle=900599 time=9006015000 pc=0x00000038 gemv_hw count=1
[ACCEL] 9008635000: START rows=512 cols=128 mat=8b9a5c vec=dab8b0 out=dabeb0
[ACCEL] 9017555000: LOAD_VEC done -> LOAD_ROW row=0
[ACCEL] 9027875000: STORE row=0 done
[ACCEL] 10347555000: STORE row=128 done
[ACCEL] 11667235000: STORE row=256 done
[ACCEL] 12986915000: STORE row=384 done
[ACCEL] 14296285000: DONE! (all 512 rows)
[ACCEL] 14298565000: START rows=512 cols=128 mat=939a5c vec=dab0b0 out=daa8b0
[ACCEL] 14307485000: LOAD_VEC done -> LOAD_ROW row=0
[ACCEL] 14317805000: STORE row=0 done
[ACCEL] 15637485000: STORE row=128 done
[ACCEL] 16957165000: STORE row=256 done
[ACCEL] 18276845000: STORE row=384 done
[ACCEL] 19586215000: DONE! (all 512 rows)
[TB][func] cycle=4249232 (0.004B) time=42492345000 pc=0x000008ec lstm_step_int count=2
[TB][func] cycle=4249698 time=42497005000 pc=0x00000038 gemv_hw count=2
[ACCEL] 42498425000: START rows=512 cols=128 mat=8f9a5c vec=dab8b0 out=dabeb0
[ACCEL] 42507345000: LOAD_VEC done -> LOAD_ROW row=0
[ACCEL] 42517665000: STORE row=0 done
[ACCEL] 43837345000: STORE row=128 done
[ACCEL] 45157025000: STORE row=256 done
[ACCEL] 46476705000: STORE row=384 done
[ACCEL] 47786075000: DONE! (all 512 rows)
[ACCEL] 47788355000: START rows=512 cols=128 mat=979a5c vec=dab2b0 out=daa8b0
[ACCEL] 47797275000: LOAD_VEC done -> LOAD_ROW row=0
[ACCEL] 47807595000: STORE row=0 done
[ACCEL] 49127275000: STORE row=128 done
[ACCEL] 50446955000: STORE row=256 done
[ACCEL] 51766635000: STORE row=384 done
[ACCEL] 53076005000: DONE! (all 512 rows)
[TB][func] time=75997265000 pc=0x00000844 embedding_lookup
[TB][func] cycle=7610225 (0.008B) time=76102275000 pc=0x000008ec lstm_step_int count=3
[TB][func] cycle=7610691 time=76106935000 pc=0x00000038 gemv_hw count=3
[ACCEL] 76109455000: START rows=512 cols=128 mat=8b9a5c vec=dab8b0 out=dabeb0
[ACCEL] 76118375000: LOAD_VEC done -> LOAD_ROW row=0
[ACCEL] 76128695000: STORE row=0 done
[ACCEL] 77448375000: STORE row=128 done
[ACCEL] 78768055000: STORE row=256 done
[ACCEL] 80087735000: STORE row=384 done
[ACCEL] 81397105000: DONE! (all 512 rows)
[ACCEL] 81399385000: START rows=512 cols=128 mat=939a5c vec=dab0b0 out=daa8b0
[ACCEL] 81408305000: LOAD_VEC done -> LOAD_ROW row=0
[ACCEL] 81418625000: STORE row=0 done
[ACCEL] 82738305000: STORE row=128 done
[ACCEL] 84057985000: STORE row=256 done
[ACCEL] 85377665000: STORE row=384 done
[ACCEL] 86687035000: DONE! (all 512 rows)
[TB][func] cycle=10980873 (0.011B) time=109808755000 pc=0x000008ec lstm_step_int count=4
[TB][func] cycle=10981339 time=109813415000 pc=0x00000038 gemv_hw count=4
[ACCEL] 109814835000: START rows=512 cols=128 mat=8f9a5c vec=dab8b0 out=dabeb0
[ACCEL] 109823755000: LOAD_VEC done -> LOAD_ROW row=0
[ACCEL] 109834075000: STORE row=0 done
[ACCEL] 111153755000: STORE row=128 done
[ACCEL] 112473435000: STORE row=256 done
[ACCEL] 113793115000: STORE row=384 done
[ACCEL] 115102485000: DONE! (all 512 rows)
[ACCEL] 115104765000: START rows=512 cols=128 mat=979a5c vec=dab2b0 out=daa8b0
[ACCEL] 115113685000: LOAD_VEC done -> LOAD_ROW row=0
[ACCEL] 115124005000: STORE row=0 done
[ACCEL] 116443685000: STORE row=128 done
[ACCEL] 117763365000: STORE row=256 done
[ACCEL] 119083045000: STORE row=384 done
[ACCEL] 120392415000: DONE! (all 512 rows)
[TB][func] time=143396545000 pc=0x00000844 embedding_lookup
[TB][func] cycle=14350153 (0.014B) time=143501555000 pc=0x000008ec lstm_step_int count=5
[TB][func] cycle=14350619 time=143506215000 pc=0x00000038 gemv_hw count=5
[ACCEL] 143508735000: START rows=512 cols=128 mat=8b9a5c vec=dab8b0 out=dabeb0
[ACCEL] 143517655000: LOAD_VEC done -> LOAD_ROW row=0
[ACCEL] 143527975000: STORE row=0 done
[ACCEL] 144847655000: STORE row=128 done
[ACCEL] 146167335000: STORE row=256 done
[ACCEL] 147487015000: STORE row=384 done
[ACCEL] 148796385000: DONE! (all 512 rows)
[ACCEL] 148798665000: START rows=512 cols=128 mat=939a5c vec=dab0b0 out=daa8b0
[ACCEL] 148807585000: LOAD_VEC done -> LOAD_ROW row=0
[ACCEL] 148817905000: STORE row=0 done
[ACCEL] 150137585000: STORE row=128 done
[ACCEL] 151457265000: STORE row=256 done
[ACCEL] 152776945000: STORE row=384 done
[ACCEL] 154086315000: DONE! (all 512 rows)
[TB][func] cycle=17719573 (0.018B) time=177195755000 pc=0x000008ec lstm_step_int count=6
[TB][func] cycle=17720039 time=177200415000 pc=0x00000038 gemv_hw count=6
[ACCEL] 177201835000: START rows=512 cols=128 mat=8f9a5c vec=dab8b0 out=dabeb0
[ACCEL] 177210755000: LOAD_VEC done -> LOAD_ROW row=0
[ACCEL] 177221075000: STORE row=0 done
[ACCEL] 178540755000: STORE row=128 done
[ACCEL] 179860435000: STORE row=256 done
[ACCEL] 181180115000: STORE row=384 done
[ACCEL] 182489485000: DONE! (all 512 rows)
[ACCEL] 182491765000: START rows=512 cols=128 mat=979a5c vec=dab2b0 out=daa8b0
[ACCEL] 182500685000: LOAD_VEC done -> LOAD_ROW row=0
[ACCEL] 182511005000: STORE row=0 done
[ACCEL] 183830685000: STORE row=128 done
[ACCEL] 185150365000: STORE row=256 done
[ACCEL] 186470045000: STORE row=384 done
[ACCEL] 187779415000: DONE! (all 512 rows)
[TB][func] time=210738545000 pc=0x00000844 embedding_lookup
[TB][func] cycle=21084353 (0.021B) time=210843555000 pc=0x000008ec lstm_step_int count=7
[TB][func] cycle=21084819 time=210848215000 pc=0x00000038 gemv_hw count=7
[ACCEL] 210850735000: START rows=512 cols=128 mat=8b9a5c vec=dab8b0 out=dabeb0
[ACCEL] 210859655000: LOAD_VEC done -> LOAD_ROW row=0
[ACCEL] 210869975000: STORE row=0 done
[ACCEL] 212189655000: STORE row=128 done
[ACCEL] 213509335000: STORE row=256 done
[ACCEL] 214829015000: STORE row=384 done
[ACCEL] 216138385000: DONE! (all 512 rows)
[ACCEL] 216140665000: START rows=512 cols=128 mat=939a5c vec=dab0b0 out=daa8b0
[ACCEL] 216149585000: LOAD_VEC done -> LOAD_ROW row=0
[ACCEL] 216159905000: STORE row=0 done
[ACCEL] 217479585000: STORE row=128 done
[ACCEL] 218799265000: STORE row=256 done
[ACCEL] 220118945000: STORE row=384 done
[ACCEL] 221428315000: DONE! (all 512 rows)
[TB][func] cycle=24449507 (0.024B) time=244495095000 pc=0x000008ec lstm_step_int count=8
[TB][func] cycle=24449973 time=244499755000 pc=0x00000038 gemv_hw count=8
[ACCEL] 244501175000: START rows=512 cols=128 mat=8f9a5c vec=dab8b0 out=dabeb0
[ACCEL] 244510095000: LOAD_VEC done -> LOAD_ROW row=0
[ACCEL] 244520415000: STORE row=0 done
[ACCEL] 245840095000: STORE row=128 done
[ACCEL] 247159775000: STORE row=256 done
[ACCEL] 248479455000: STORE row=384 done
[ACCEL] 249788825000: DONE! (all 512 rows)
[ACCEL] 249791105000: START rows=512 cols=128 mat=979a5c vec=dab2b0 out=daa8b0
[ACCEL] 249800025000: LOAD_VEC done -> LOAD_ROW row=0
[ACCEL] 249810345000: STORE row=0 done
[ACCEL] 251130025000: STORE row=128 done
[ACCEL] 252449705000: STORE row=256 done
[ACCEL] 253769385000: STORE row=384 done
[ACCEL] 255078755000: DONE! (all 512 rows)
[TB][func] time=278092045000 pc=0x00000844 embedding_lookup
[TB][func] cycle=27819703 (0.028B) time=278197055000 pc=0x000008ec lstm_step_int count=9
[TB][func] cycle=27820169 time=278201715000 pc=0x00000038 gemv_hw count=9
[ACCEL] 278204235000: START rows=512 cols=128 mat=8b9a5c vec=dab8b0 out=dabeb0
[ACCEL] 278213155000: LOAD_VEC done -> LOAD_ROW row=0
[ACCEL] 278223475000: STORE row=0 done
[ACCEL] 279543155000: STORE row=128 done
[ACCEL] 280862835000: STORE row=256 done
[ACCEL] 282182515000: STORE row=384 done
[ACCEL] 283491885000: DONE! (all 512 rows)
[ACCEL] 283494165000: START rows=512 cols=128 mat=939a5c vec=dab0b0 out=daa8b0
[ACCEL] 283503085000: LOAD_VEC done -> LOAD_ROW row=0
[ACCEL] 283513405000: STORE row=0 done
[ACCEL] 284833085000: STORE row=128 done
[ACCEL] 286152765000: STORE row=256 done
[ACCEL] 287472445000: STORE row=384 done
[ACCEL] 288781815000: DONE! (all 512 rows)
[TB][func] cycle=31191360 (0.031B) time=311913625000 pc=0x000008ec lstm_step_int count=10
[TB][func] cycle=31191826 time=311918285000 pc=0x00000038 gemv_hw count=10
[ACCEL] 311919705000: START rows=512 cols=128 mat=8f9a5c vec=dab8b0 out=dabeb0
[ACCEL] 311928625000: LOAD_VEC done -> LOAD_ROW row=0
[ACCEL] 311938945000: STORE row=0 done
[ACCEL] 313258625000: STORE row=128 done
[ACCEL] 314578305000: STORE row=256 done
[ACCEL] 315897985000: STORE row=384 done
[ACCEL] 317207355000: DONE! (all 512 rows)
[ACCEL] 317209635000: START rows=512 cols=128 mat=979a5c vec=dab2b0 out=daa8b0
[ACCEL] 317218555000: LOAD_VEC done -> LOAD_ROW row=0
[ACCEL] 317228875000: STORE row=0 done
[ACCEL] 318548555000: STORE row=128 done
[ACCEL] 319868235000: STORE row=256 done
[ACCEL] 321187915000: STORE row=384 done
[ACCEL] 322497285000: DONE! (all 512 rows)
[TB][func] time=345555065000 pc=0x00000844 embedding_lookup
[TB][func] cycle=34566005 (0.035B) time=345660075000 pc=0x000008ec lstm_step_int count=11
[TB][func] cycle=34566471 time=345664735000 pc=0x00000038 gemv_hw count=11
[ACCEL] 345667255000: START rows=512 cols=128 mat=8b9a5c vec=dab8b0 out=dabeb0
[ACCEL] 345676175000: LOAD_VEC done -> LOAD_ROW row=0
[ACCEL] 345686495000: STORE row=0 done
[ACCEL] 347006175000: STORE row=128 done
[ACCEL] 348325855000: STORE row=256 done
[ACCEL] 349645535000: STORE row=384 done
[ACCEL] 350954905000: DONE! (all 512 rows)
[ACCEL] 350957185000: START rows=512 cols=128 mat=939a5c vec=dab0b0 out=daa8b0
[ACCEL] 350966105000: LOAD_VEC done -> LOAD_ROW row=0
[ACCEL] 350976425000: STORE row=0 done
[ACCEL] 352296105000: STORE row=128 done
[ACCEL] 353615785000: STORE row=256 done
[ACCEL] 354935465000: STORE row=384 done
[ACCEL] 356244835000: DONE! (all 512 rows)
[TB][func] cycle=37938446 (0.038B) time=379384485000 pc=0x000008ec lstm_step_int count=12
[TB][func] cycle=37938912 time=379389145000 pc=0x00000038 gemv_hw count=12
[ACCEL] 379390565000: START rows=512 cols=128 mat=8f9a5c vec=dab8b0 out=dabeb0
[ACCEL] 379399485000: LOAD_VEC done -> LOAD_ROW row=0
[ACCEL] 379409805000: STORE row=0 done
[ACCEL] 380729485000: STORE row=128 done
[ACCEL] 382049165000: STORE row=256 done
[ACCEL] 383368845000: STORE row=384 done
[ACCEL] 384678215000: DONE! (all 512 rows)
[ACCEL] 384680495000: START rows=512 cols=128 mat=979a5c vec=dab2b0 out=daa8b0
[ACCEL] 384689415000: LOAD_VEC done -> LOAD_ROW row=0
[ACCEL] 384699735000: STORE row=0 done
[ACCEL] 386019415000: STORE row=128 done
[ACCEL] 387339095000: STORE row=256 done
[ACCEL] 388658775000: STORE row=384 done
[ACCEL] 389968145000: DONE! (all 512 rows)
[TB][func] time=413072755000 pc=0x00000844 embedding_lookup
[TB][func] cycle=41317774 (0.041B) time=413177765000 pc=0x000008ec lstm_step_int count=13
[TB][func] cycle=41318240 time=413182425000 pc=0x00000038 gemv_hw count=13
[ACCEL] 413184945000: START rows=512 cols=128 mat=8b9a5c vec=dab8b0 out=dabeb0
[ACCEL] 413193865000: LOAD_VEC done -> LOAD_ROW row=0
[ACCEL] 413204185000: STORE row=0 done
[ACCEL] 414523865000: STORE row=128 done
[ACCEL] 415843545000: STORE row=256 done
[ACCEL] 417163225000: STORE row=384 done
[ACCEL] 418472595000: DONE! (all 512 rows)
[ACCEL] 418474875000: START rows=512 cols=128 mat=939a5c vec=dab0b0 out=daa8b0
[ACCEL] 418483795000: LOAD_VEC done -> LOAD_ROW row=0
[ACCEL] 418494115000: STORE row=0 done
[ACCEL] 419813795000: STORE row=128 done
[ACCEL] 421133475000: STORE row=256 done
[ACCEL] 422453155000: STORE row=384 done
[ACCEL] 423762525000: DONE! (all 512 rows)
[TB][func] cycle=44689097 (0.045B) time=446890995000 pc=0x000008ec lstm_step_int count=14
[TB][func] cycle=44689563 time=446895655000 pc=0x00000038 gemv_hw count=14
[ACCEL] 446897075000: START rows=512 cols=128 mat=8f9a5c vec=dab8b0 out=dabeb0
[ACCEL] 446905995000: LOAD_VEC done -> LOAD_ROW row=0
[ACCEL] 446916315000: STORE row=0 done
[ACCEL] 448235995000: STORE row=128 done
[ACCEL] 449555675000: STORE row=256 done
[ACCEL] 450875355000: STORE row=384 done
[ACCEL] 452184725000: DONE! (all 512 rows)
[ACCEL] 452187005000: START rows=512 cols=128 mat=979a5c vec=dab2b0 out=daa8b0
[ACCEL] 452195925000: LOAD_VEC done -> LOAD_ROW row=0
[ACCEL] 452206245000: STORE row=0 done
[ACCEL] 453525925000: STORE row=128 done
[ACCEL] 454845605000: STORE row=256 done
[ACCEL] 456165285000: STORE row=384 done
[ACCEL] 457474655000: DONE! (all 512 rows)
[TB][func] time=480621525000 pc=0x00000844 embedding_lookup
[TB][func] cycle=48072651 (0.048B) time=480726535000 pc=0x000008ec lstm_step_int count=15
[TB][func] cycle=48073117 time=480731195000 pc=0x00000038 gemv_hw count=15
[ACCEL] 480733715000: START rows=512 cols=128 mat=8b9a5c vec=dab8b0 out=dabeb0
[ACCEL] 480742635000: LOAD_VEC done -> LOAD_ROW row=0
[ACCEL] 480752955000: STORE row=0 done
[ACCEL] 482072635000: STORE row=128 done
[ACCEL] 483392315000: STORE row=256 done
[ACCEL] 484711995000: STORE row=384 done
[ACCEL] 486021365000: DONE! (all 512 rows)
[ACCEL] 486023645000: START rows=512 cols=128 mat=939a5c vec=dab0b0 out=daa8b0
[ACCEL] 486032565000: LOAD_VEC done -> LOAD_ROW row=0
[ACCEL] 486042885000: STORE row=0 done
[ACCEL] 487362565000: STORE row=128 done
[ACCEL] 488682245000: STORE row=256 done
[ACCEL] 490001925000: STORE row=384 done
[ACCEL] 491311295000: DONE! (all 512 rows)
[TB][func] cycle=51447584 (0.051B) time=514475865000 pc=0x000008ec lstm_step_int count=16
[TB][func] cycle=51448050 time=514480525000 pc=0x00000038 gemv_hw count=16
[ACCEL] 514481945000: START rows=512 cols=128 mat=8f9a5c vec=dab8b0 out=dabeb0
[ACCEL] 514490865000: LOAD_VEC done -> LOAD_ROW row=0
[ACCEL] 514501185000: STORE row=0 done
[ACCEL] 515820865000: STORE row=128 done
[ACCEL] 517140545000: STORE row=256 done
[ACCEL] 518460225000: STORE row=384 done
[ACCEL] 519769595000: DONE! (all 512 rows)
[ACCEL] 519771875000: START rows=512 cols=128 mat=979a5c vec=dab2b0 out=daa8b0
[ACCEL] 519780795000: LOAD_VEC done -> LOAD_ROW row=0
[ACCEL] 519791115000: STORE row=0 done
[ACCEL] 521110795000: STORE row=128 done
[ACCEL] 522430475000: STORE row=256 done
[ACCEL] 523750155000: STORE row=384 done
[ACCEL] 525059525000: DONE! (all 512 rows)
[TB][func] time=548223145000 pc=0x00000844 embedding_lookup
[TB][func] cycle=54832813 (0.055B) time=548328155000 pc=0x000008ec lstm_step_int count=17
[TB][func] cycle=54833279 time=548332815000 pc=0x00000038 gemv_hw count=17
[ACCEL] 548335335000: START rows=512 cols=128 mat=8b9a5c vec=dab8b0 out=dabeb0
[ACCEL] 548344255000: LOAD_VEC done -> LOAD_ROW row=0
[ACCEL] 548354575000: STORE row=0 done
[ACCEL] 549674255000: STORE row=128 done
[ACCEL] 550993935000: STORE row=256 done
[ACCEL] 552313615000: STORE row=384 done
[ACCEL] 553622985000: DONE! (all 512 rows)
[ACCEL] 553625265000: START rows=512 cols=128 mat=939a5c vec=dab0b0 out=daa8b0
[ACCEL] 553634185000: LOAD_VEC done -> LOAD_ROW row=0
[ACCEL] 553644505000: STORE row=0 done
[ACCEL] 554964185000: STORE row=128 done
[ACCEL] 556283865000: STORE row=256 done
[ACCEL] 557603545000: STORE row=384 done
[ACCEL] 558912915000: DONE! (all 512 rows)
[TB][func] cycle=58205029 (0.058B) time=582050315000 pc=0x000008ec lstm_step_int count=18
[TB][func] cycle=58205495 time=582054975000 pc=0x00000038 gemv_hw count=18
[ACCEL] 582056395000: START rows=512 cols=128 mat=8f9a5c vec=dab8b0 out=dabeb0
[ACCEL] 582065315000: LOAD_VEC done -> LOAD_ROW row=0
[ACCEL] 582075635000: STORE row=0 done
[ACCEL] 583395315000: STORE row=128 done
[ACCEL] 584714995000: STORE row=256 done
[ACCEL] 586034675000: STORE row=384 done
[ACCEL] 587344045000: DONE! (all 512 rows)
[ACCEL] 587346325000: START rows=512 cols=128 mat=979a5c vec=dab2b0 out=daa8b0
[ACCEL] 587355245000: LOAD_VEC done -> LOAD_ROW row=0
[ACCEL] 587365565000: STORE row=0 done
[ACCEL] 588685245000: STORE row=128 done
[ACCEL] 590004925000: STORE row=256 done
[ACCEL] 591324605000: STORE row=384 done
[ACCEL] 592633975000: DONE! (all 512 rows)
[TB][func] time=615799785000 pc=0x00000844 embedding_lookup
[TB][func] cycle=61590477 (0.062B) time=615904795000 pc=0x000008ec lstm_step_int count=19
[TB][func] cycle=61590943 time=615909455000 pc=0x00000038 gemv_hw count=19
[ACCEL] 615911975000: START rows=512 cols=128 mat=8b9a5c vec=dab8b0 out=dabeb0
[ACCEL] 615920895000: LOAD_VEC done -> LOAD_ROW row=0
[ACCEL] 615931215000: STORE row=0 done
[ACCEL] 617250895000: STORE row=128 done
[ACCEL] 618570575000: STORE row=256 done
[ACCEL] 619890255000: STORE row=384 done
[ACCEL] 621199625000: DONE! (all 512 rows)
[ACCEL] 621201905000: START rows=512 cols=128 mat=939a5c vec=dab0b0 out=daa8b0
[ACCEL] 621210825000: LOAD_VEC done -> LOAD_ROW row=0
[ACCEL] 621221145000: STORE row=0 done
[ACCEL] 622540825000: STORE row=128 done
[ACCEL] 623860505000: STORE row=256 done
[ACCEL] 625180185000: STORE row=384 done
[ACCEL] 626489555000: DONE! (all 512 rows)
[TB][func] cycle=64966901 (0.065B) time=649669035000 pc=0x000008ec lstm_step_int count=20
[TB][func] cycle=64967367 time=649673695000 pc=0x00000038 gemv_hw count=20
[ACCEL] 649675115000: START rows=512 cols=128 mat=8f9a5c vec=dab8b0 out=dabeb0
[ACCEL] 649684035000: LOAD_VEC done -> LOAD_ROW row=0
[ACCEL] 649694355000: STORE row=0 done
[ACCEL] 651014035000: STORE row=128 done
[ACCEL] 652333715000: STORE row=256 done
[ACCEL] 653653395000: STORE row=384 done
[ACCEL] 654962765000: DONE! (all 512 rows)
[ACCEL] 654965045000: START rows=512 cols=128 mat=979a5c vec=dab2b0 out=daa8b0
[ACCEL] 654973965000: LOAD_VEC done -> LOAD_ROW row=0
[ACCEL] 654984285000: STORE row=0 done
[ACCEL] 656303965000: STORE row=128 done
[ACCEL] 657623645000: STORE row=256 done
[ACCEL] 658943325000: STORE row=384 done
[ACCEL] 660252695000: DONE! (all 512 rows)
[TB][func] time=683397005000 pc=0x00000844 embedding_lookup
[TB][func] cycle=68350199 (0.068B) time=683502015000 pc=0x000008ec lstm_step_int count=21
[TB][func] cycle=68350665 time=683506675000 pc=0x00000038 gemv_hw count=21
[ACCEL] 683509195000: START rows=512 cols=128 mat=8b9a5c vec=dab8b0 out=dabeb0
[ACCEL] 683518115000: LOAD_VEC done -> LOAD_ROW row=0
[ACCEL] 683528435000: STORE row=0 done
[ACCEL] 684848115000: STORE row=128 done
[ACCEL] 686167795000: STORE row=256 done
[ACCEL] 687487475000: STORE row=384 done
[ACCEL] 688796845000: DONE! (all 512 rows)
[ACCEL] 688799125000: START rows=512 cols=128 mat=939a5c vec=dab0b0 out=daa8b0
[ACCEL] 688808045000: LOAD_VEC done -> LOAD_ROW row=0
[ACCEL] 688818365000: STORE row=0 done
[ACCEL] 690138045000: STORE row=128 done
[ACCEL] 691457725000: STORE row=256 done
[ACCEL] 692777405000: STORE row=384 done
[ACCEL] 694086775000: DONE! (all 512 rows)
[TB][func] cycle=71719249 (0.072B) time=717192515000 pc=0x000008ec lstm_step_int count=22
[TB][func] cycle=71719715 time=717197175000 pc=0x00000038 gemv_hw count=22
[ACCEL] 717198595000: START rows=512 cols=128 mat=8f9a5c vec=dab8b0 out=dabeb0
[ACCEL] 717207515000: LOAD_VEC done -> LOAD_ROW row=0
[ACCEL] 717217835000: STORE row=0 done
[ACCEL] 718537515000: STORE row=128 done
[ACCEL] 719857195000: STORE row=256 done
[ACCEL] 721176875000: STORE row=384 done
[ACCEL] 722486245000: DONE! (all 512 rows)
[ACCEL] 722488525000: START rows=512 cols=128 mat=979a5c vec=dab2b0 out=daa8b0
[ACCEL] 722497445000: LOAD_VEC done -> LOAD_ROW row=0
[ACCEL] 722507765000: STORE row=0 done
[ACCEL] 723827445000: STORE row=128 done
[ACCEL] 725147125000: STORE row=256 done
[ACCEL] 726466805000: STORE row=384 done
[ACCEL] 727776175000: DONE! (all 512 rows)
[TB][func] time=750945345000 pc=0x00000ee8 publish_partial_result_sequence
[TB] partial result saved: sent_cnt=1 used_u32=0 file=lstm_result_summary.txt
[TB] partial result saved: sent_cnt=1 used_u32=2 file=lstm_result_summary.txt
[TB][func] time=750952895000 pc=0x00000844 embedding_lookup
[TB][func] cycle=75105803 (0.075B) time=751058055000 pc=0x000008ec lstm_step_int count=23
[TB][func] cycle=75106264 time=751062665000 pc=0x00000038 gemv_hw count=23
[ACCEL] 751065185000: START rows=512 cols=128 mat=9baa5c vec=dab8b0 out=dabeb0
[ACCEL] 751074105000: LOAD_VEC done -> LOAD_ROW row=0
[ACCEL] 751084425000: STORE row=0 done
[ACCEL] 752404105000: STORE row=128 done
[ACCEL] 753723785000: STORE row=256 done
[ACCEL] 755043465000: STORE row=384 done
[ACCEL] 756352835000: DONE! (all 512 rows)
[ACCEL] 756354765000: START rows=512 cols=128 mat=a3aa5c vec=dab0b0 out=daa8b0
[ACCEL] 756363685000: LOAD_VEC done -> LOAD_ROW row=0
[ACCEL] 756374005000: STORE row=0 done
[ACCEL] 757693685000: STORE row=128 done
[ACCEL] 759013365000: STORE row=256 done
[ACCEL] 760333045000: STORE row=384 done
[ACCEL] 761642415000: DONE! (all 512 rows)
[TB][func] cycle=78473928 (0.078B) time=784739305000 pc=0x000008ec lstm_step_int count=24
[TB][func] cycle=78474389 time=784743915000 pc=0x00000038 gemv_hw count=24
[ACCEL] 784745335000: START rows=512 cols=128 mat=9faa5c vec=dab8b0 out=dabeb0
[ACCEL] 784754255000: LOAD_VEC done -> LOAD_ROW row=0
[ACCEL] 784764575000: STORE row=0 done
[ACCEL] 786084255000: STORE row=128 done
[ACCEL] 787403935000: STORE row=256 done
[ACCEL] 788723615000: STORE row=384 done
[ACCEL] 790032985000: DONE! (all 512 rows)
[ACCEL] 790034915000: START rows=512 cols=128 mat=a7aa5c vec=dab2b0 out=daa8b0
[ACCEL] 790043835000: LOAD_VEC done -> LOAD_ROW row=0
[ACCEL] 790054155000: STORE row=0 done
[ACCEL] 791373835000: STORE row=128 done
[ACCEL] 792693515000: STORE row=256 done
[ACCEL] 794013195000: STORE row=384 done
[ACCEL] 795322565000: DONE! (all 512 rows)
[TB][func] time=818516835000 pc=0x00000c60 linear_out_argmax
[TB][func] time=7694303205000 pc=0x00000ee8 publish_partial_result_sequence
[TB] partial result saved: sent_cnt=1 used_u32=3 file=lstm_result_summary.txt
[TB][func] time=7694311805000 pc=0x00000844 embedding_lookup
[TB][func] cycle=769441694 (0.769B) time=7694416965000 pc=0x000008ec lstm_step_int count=25
[TB][func] cycle=769442155 time=7694421575000 pc=0x00000038 gemv_hw count=25
[ACCEL] 7694424095000: START rows=512 cols=128 mat=9baa5c vec=dab8b0 out=dabeb0
[ACCEL] 7694433015000: LOAD_VEC done -> LOAD_ROW row=0
[ACCEL] 7694443335000: STORE row=0 done
[ACCEL] 7695763015000: STORE row=128 done
[ACCEL] 7697082695000: STORE row=256 done
[ACCEL] 7698402375000: STORE row=384 done
[ACCEL] 7699711745000: DONE! (all 512 rows)
[ACCEL] 7699713675000: START rows=512 cols=128 mat=a3aa5c vec=dab0b0 out=daa8b0
[ACCEL] 7699722595000: LOAD_VEC done -> LOAD_ROW row=0
[ACCEL] 7699732915000: STORE row=0 done
[ACCEL] 7701052595000: STORE row=128 done
[ACCEL] 7702372275000: STORE row=256 done
[ACCEL] 7703691955000: STORE row=384 done
[ACCEL] 7705001325000: DONE! (all 512 rows)
[TB][func] cycle=772807719 (0.773B) time=7728077215000 pc=0x000008ec lstm_step_int count=26
[TB][func] cycle=772808180 time=7728081825000 pc=0x00000038 gemv_hw count=26
[ACCEL] 7728083245000: START rows=512 cols=128 mat=9faa5c vec=dab8b0 out=dabeb0
[ACCEL] 7728092165000: LOAD_VEC done -> LOAD_ROW row=0
[ACCEL] 7728102485000: STORE row=0 done
[ACCEL] 7729422165000: STORE row=128 done
[ACCEL] 7730741845000: STORE row=256 done
[ACCEL] 7732061525000: STORE row=384 done
[ACCEL] 7733370895000: DONE! (all 512 rows)
[ACCEL] 7733372825000: START rows=512 cols=128 mat=a7aa5c vec=dab2b0 out=daa8b0
[ACCEL] 7733381745000: LOAD_VEC done -> LOAD_ROW row=0
[ACCEL] 7733392065000: STORE row=0 done
[ACCEL] 7734711745000: STORE row=128 done
[ACCEL] 7736031425000: STORE row=256 done
[ACCEL] 7737351105000: STORE row=384 done
[ACCEL] 7738660475000: DONE! (all 512 rows)
[TB][func] time=7761790325000 pc=0x00000c60 linear_out_argmax
[TB][func] time=14651130205000 pc=0x00000ee8 publish_partial_result_sequence
[TB] partial result saved: sent_cnt=1 used_u32=4 file=lstm_result_summary.txt
[TB][func] time=14651139765000 pc=0x00000844 embedding_lookup
[TB][func] cycle=1465124490 (1.465B) time=14651244925000 pc=0x000008ec lstm_step_int count=27
[TB][func] cycle=1465124951 time=14651249535000 pc=0x00000038 gemv_hw count=27
[ACCEL] 14651252055000: START rows=512 cols=128 mat=9baa5c vec=dab8b0 out=dabeb0
[ACCEL] 14651260975000: LOAD_VEC done -> LOAD_ROW row=0
[ACCEL] 14651271295000: STORE row=0 done
[ACCEL] 14652590975000: STORE row=128 done
[ACCEL] 14653910655000: STORE row=256 done
[ACCEL] 14655230335000: STORE row=384 done
[ACCEL] 14656539705000: DONE! (all 512 rows)
[ACCEL] 14656541635000: START rows=512 cols=128 mat=a3aa5c vec=dab0b0 out=daa8b0
[ACCEL] 14656550555000: LOAD_VEC done -> LOAD_ROW row=0
[ACCEL] 14656560875000: STORE row=0 done
[ACCEL] 14657880555000: STORE row=128 done
[ACCEL] 14659200235000: STORE row=256 done
[ACCEL] 14660519915000: STORE row=384 done
[ACCEL] 14661829285000: DONE! (all 512 rows)
[TB][func] cycle=1468486991 (1.468B) time=14684869935000 pc=0x000008ec lstm_step_int count=28
[TB][func] cycle=1468487452 time=14684874545000 pc=0x00000038 gemv_hw count=28
[ACCEL] 14684875965000: START rows=512 cols=128 mat=9faa5c vec=dab8b0 out=dabeb0
[ACCEL] 14684884885000: LOAD_VEC done -> LOAD_ROW row=0
[ACCEL] 14684895205000: STORE row=0 done
[ACCEL] 14686214885000: STORE row=128 done
[ACCEL] 14687534565000: STORE row=256 done
[ACCEL] 14688854245000: STORE row=384 done
[ACCEL] 14690163615000: DONE! (all 512 rows)
[ACCEL] 14690165545000: START rows=512 cols=128 mat=a7aa5c vec=dab2b0 out=daa8b0
[ACCEL] 14690174465000: LOAD_VEC done -> LOAD_ROW row=0
[ACCEL] 14690184785000: STORE row=0 done
[ACCEL] 14691504465000: STORE row=128 done
[ACCEL] 14692824145000: STORE row=256 done
